Name,Team,BodyweightKg,Best3SquatKg,Best3BenchKg,Best3DeadliftKg,TotalKg,Sex,Event,Equipment,WeightClassKg,Place,Division
Georgia Dowsett,nm,42,57.5,27.5,85,170,F,SBD,Single-ply,44,1,Open
Margaret Docherty,sco,45.4,72.5,30,80,182.5,F,SBD,Single-ply,48,1,Open
Rebecca Shaw,yne,49.3,80,27.5,90,197.5,F,SBD,Single-ply,52,1,Open
Kerry Lowe,nm,56.4,107.5,60,120,287.5,F,SBD,Single-ply,60,1,Open
Leanne Brown #1,sco,56.4,92.5,45,97.5,235,F,SBD,Single-ply,60,2,Open
J. Milnes,sw,56.2,60,30,100,190,F,SBD,Single-ply,60,3,Open
Marie Thornton,yne,67.2,130,45,130,305,F,SBD,Single-ply,67.5,1,Open
Sam Burns-Salmond,nm,74.9,165,85,165,415,F,SBD,Single-ply,75,1,Open
Jennifer Busby,wm,83,140,70,157.5,367.5,F,SBD,Single-ply,90,1,Open
