Division,WeightClassKg,Place,Name,Team,BodyweightKg,Best3SquatKg,Best3BenchKg,Best3DeadliftKg,TotalKg,Equipment,Event,Sex
Boys,51.71,1,Darius Mallard,Navasota,50.94,136.08,74.84,154.22,365.14,Single-ply,SBD,M
Boys,51.71,2,Tyler Sevcik,College Station A&M Cons,51.53,120.2,77.11,149.69,347,Single-ply,SBD,M
Boys,55.79,3,Tyler Marcel,Conroe Oak Ridge,51.94,120.2,77.11,138.35,335.66,Single-ply,SBD,M
Boys,55.79,4,Matt Hebert,Magnolia,51.85,120.2,61.23,111.13,292.57,Single-ply,SBD,M
Boys,51.71,5,Daniel Segura,Magnolia,50.71,92.99,61.23,102.06,256.28,Single-ply,SBD,M
Boys,51.71,6,Jim Williams,Conroe The Woodlands,51.03,81.65,49.9,97.52,229.06,Single-ply,SBD,M
Boys,51.71,7,Ryan Kerr,Conroe Woodlands College Park,42.09,54.43,31.75,56.7,142.88,Single-ply,SBD,M
Boys,55.79,1,Christian Escobar,Katy Morton Ranch,53.02,113.4,79.38,136.08,328.85,Single-ply,SBD,M
Boys,55.79,2,Kevin O'Neil,Conroe The Woodlands,55.61,127.01,74.84,127.01,328.85,Single-ply,SBD,M
Boys,55.79,3,Marcus Davis,Houston Washington,54.39,90.72,65.77,120.2,276.69,Single-ply,SBD,M
Boys,59.87,1,Brian Vizuet,Navasota,59.06,154.22,99.79,185.97,439.98,Single-ply,SBD,M
Boys,59.87,2,Craig Collins,Conroe The Woodlands,58.83,145.15,83.91,149.69,378.75,Single-ply,SBD,M
Boys,59.87,3,Chaise Edwards,Montgomery,57.47,170.1,79.38,127.01,376.48,Single-ply,SBD,M
Boys,59.87,4,Steven McCartha,Montgomery,58.2,138.35,83.91,154.22,376.48,Single-ply,SBD,M
Boys,59.87,5,John-Bradley Greene,Conroe Woodlands College Park,59.56,129.27,70.31,136.08,335.66,Single-ply,SBD,M
Boys,67.13,1,Jared Wetuski,Montgomery,64.64,213.19,122.47,195.04,530.7,Single-ply,SBD,M
Boys,67.13,DQ,Zerrick Merchant,College Station A&M Cons,60.37,,,,,Single-ply,SBD,M
Boys,67.13,3,Riley Martinez,College Station A&M Cons,66.36,199.58,106.59,190.51,496.68,Single-ply,SBD,M
Boys,67.13,4,Bobby Hennigan,College Station A&M Cons,67.13,174.63,124.74,197.31,496.68,Single-ply,SBD,M
Boys,67.13,5,Casey Hicks,Houston Cypress Woods,64,170.1,97.52,185.97,453.59,Single-ply,SBD,M
Boys,67.13,6,Stephan Ellis,Bryan,62.32,172.37,95.25,170.1,437.72,Single-ply,SBD,M
Boys,67.13,7,Caffery Penn,Conroe The Woodlands,61.82,149.69,95.25,167.83,412.77,Single-ply,SBD,M
Boys,67.13,8,Dan London,Conroe The Woodlands,66.81,145.15,92.99,167.83,405.97,Single-ply,SBD,M
Boys,74.84,9,James Corn,Conroe Oak Ridge,67.36,142.88,102.06,156.49,401.43,Single-ply,SBD,M
Boys,67.13,10,Jesus Cortez,Navasota,62.96,149.69,79.38,131.54,360.61,Single-ply,SBD,M
Boys,67.13,11,Dalton Goetzinger,Conroe The Woodlands,63.09,138.35,81.65,136.08,356.07,Single-ply,SBD,M
Boys,67.13,12,Justin Poole,Conroe The Woodlands,64.64,131.54,81.65,136.08,349.27,Single-ply,SBD,M
Boys,67.13,13,Akeem Green,Conroe The Woodlands,62.46,127.01,77.11,140.61,344.73,Single-ply,SBD,M
Boys,82.1,1,Cedrick McCan,College Station A&M Cons,74.93,229.06,120.2,244.94,594.21,Single-ply,SBD,M
Boys,74.84,2,Mark McKeown,Magnolia,73.62,183.7,124.74,192.78,501.22,Single-ply,SBD,M
Boys,74.84,3,Matt Gray,Conroe,73.26,181.44,124.74,183.7,489.88,Single-ply,SBD,M
Boys,74.84,4,John Patty,Montgomery,70.94,183.7,115.67,170.1,469.47,Single-ply,SBD,M
Boys,82.1,5,Casem Noureddin,Houston Cypress Woods,75.02,183.7,111.13,174.63,469.47,Single-ply,SBD,M
Boys,74.84,6,Collin Covington,Conroe The Woodlands,71.26,151.95,99.79,188.24,439.98,Single-ply,SBD,M
Boys,74.84,7,Colby Kitterman,Conroe Oak Ridge,73.62,170.1,104.33,151.95,426.38,Single-ply,SBD,M
Boys,74.84,8,Tavion Walton,Bryan,71.08,156.49,86.18,158.76,401.43,Single-ply,SBD,M
Boys,74.84,9,Thomas Guillen,Conroe,71.76,149.69,83.91,165.56,399.16,Single-ply,SBD,M
Boys,74.84,10,Austin Glenn,Conroe Oak Ridge,69.22,120.2,92.99,154.22,367.41,Single-ply,SBD,M
Boys,74.84,11,Ashton Glenn,Conroe Oak Ridge,70.17,120.2,92.99,151.95,365.14,Single-ply,SBD,M
Boys,74.84,12,Carson Neal,Montgomery,69.08,136.08,70.31,136.08,342.46,Single-ply,SBD,M
Boys,82.1,1,Joe Waithaka,College Station A&M Cons,81.96,226.8,145.15,213.19,585.13,Single-ply,SBD,M
Boys,89.81,2,Joe Cantu,Conroe Oak Ridge,82.33,226.8,127.01,226.8,580.6,Single-ply,SBD,M
Boys,82.1,3,Will Glover,Houston Cypress Woods,76.38,242.67,122.47,204.12,569.26,Single-ply,SBD,M
Boys,89.81,4,Brett Boswell,Conroe Woodlands College Park,82.24,213.19,138.35,206.38,557.92,Single-ply,SBD,M
Boys,82.1,5,Eric Washington,Montgomery,75.7,210.92,124.74,213.19,548.85,Single-ply,SBD,M
Boys,82.1,6,Shyerome Harris,Magnolia,80.42,219.99,113.4,213.19,546.58,Single-ply,SBD,M
Boys,82.1,7,Taylor Faridifar,Conroe,81.19,188.24,129.27,201.85,519.36,Single-ply,SBD,M
Boys,82.1,8,Mitchell Fountain,Conroe The Woodlands,78.83,185.97,102.06,201.85,489.88,Single-ply,SBD,M
Boys,82.1,9,Patrick Strong,Magnolia,81.15,165.56,133.81,188.24,487.61,Single-ply,SBD,M
Boys,82.1,10,Eric Martin,Conroe,79.15,172.37,92.99,192.78,458.13,Single-ply,SBD,M
Boys,89.81,11,Patrick Bender,Conroe,82.19,165.56,108.86,181.44,455.86,Single-ply,SBD,M
Boys,82.1,12,Andrew Danheim,Conroe The Woodlands,77.38,161.03,99.79,163.29,424.11,Single-ply,SBD,M
Boys,82.1,13,Austen Reaves,Conroe The Woodlands,75.93,136.08,81.65,165.56,383.29,Single-ply,SBD,M
Boys,82.1,14,Charles Cotton,Conroe The Woodlands,75.8,120.2,92.99,140.61,353.8,Single-ply,SBD,M
Boys,82.1,15,Eric Ramirez,Houston Washington,79.97,111.13,74.84,163.29,349.27,Single-ply,SBD,M
Boys,89.81,1,Chris Ceazar,College Station A&M Cons,88.22,256.28,165.56,256.28,678.12,Single-ply,SBD,M
Boys,89.81,2,Erick Barcenas,Conroe,87,204.12,138.35,179.17,521.63,Single-ply,SBD,M
Boys,89.81,3,Cody Wallace,Magnolia,85.82,183.7,129.27,206.38,519.36,Single-ply,SBD,M
Boys,99.79,4,Daylan Skidmore,Houston Cypress Woods,89.9,190.51,117.93,206.38,514.83,Single-ply,SBD,M
Boys,89.81,5,Desmond Calhoun,Navasota,82.69,181.44,90.72,226.8,498.95,Single-ply,SBD,M
Boys,99.79,6,Patrick McCloud,Conroe The Woodlands,90.04,181.44,108.86,197.31,487.61,Single-ply,SBD,M
Boys,89.81,7,Jason Paul,Conroe Woodlands College Park,87.18,190.51,113.4,174.63,478.54,Single-ply,SBD,M
Boys,89.81,8,Alex Markos,Montgomery,84.96,170.1,113.4,172.37,455.86,Single-ply,SBD,M
Boys,89.81,9,Chad Murski,Conroe Woodlands College Park,89.63,181.44,86.18,181.44,449.06,Single-ply,SBD,M
Boys,89.81,10,JeCory Goosby,Bryan,88.41,165.56,99.79,181.44,446.79,Single-ply,SBD,M
Boys,89.81,11,Blake Butler,Conroe Oak Ridge,89.77,172.37,113.4,149.69,435.45,Single-ply,SBD,M
Boys,89.81,12,Mark Love,Conroe The Woodlands,86.59,156.49,83.91,174.63,415.04,Single-ply,SBD,M
Boys,89.81,13,Demarque Lestrappe,Conroe Oak Ridge,83.69,147.42,86.18,165.56,399.16,Single-ply,SBD,M
Boys,89.81,14,Lyndell Robinson,Houston Washington,84.78,120.2,102.06,170.1,392.36,Single-ply,SBD,M
Boys,89.81,15,Seth Keating,Montgomery,86.45,199.58,,174.63,374.21,Single-ply,SD,M
Boys,99.79,1,Rodney Brown,Navasota,96.34,263.08,167.83,274.42,705.34,Single-ply,SBD,M
Boys,99.79,2,Nathan Mallard,Navasota,96.25,231.33,120.2,240.4,591.94,Single-ply,SBD,M
Boys,99.79,3,Michael Hodges,Conroe The Woodlands,93.71,222.26,124.74,242.67,589.67,Single-ply,SBD,M
Boys,99.79,4,Sam Heaton,Conroe Woodlands College Park,99.47,226.8,99.79,229.06,555.65,Single-ply,SBD,M
Boys,99.79,5,Jared Moffett,Houston Cypress Woods,90.67,181.44,115.67,240.4,537.51,Single-ply,SBD,M
Boys,99.79,6,Chad Campagna,Conroe,98.47,210.92,138.35,183.7,532.97,Single-ply,SBD,M
Boys,99.79,7,Thang Nguyen,Montgomery,99.7,190.51,124.74,215.46,530.7,Single-ply,SBD,M
Boys,99.79,8,Matt McGlone,Magnolia,92.58,183.7,156.49,183.7,523.9,Single-ply,SBD,M
Boys,99.79,9,Jeffrey Tauras,Conroe Oak Ridge,98.66,163.29,95.25,172.37,430.91,Single-ply,SBD,M
Boys,99.79,10,Jason Zgourides,Conroe The Woodlands,95.25,117.93,97.52,145.15,360.61,Single-ply,SBD,M
Boys,99.79,11,Eric Whitaker,Conroe The Woodlands,91.67,124.74,79.38,136.08,340.19,Single-ply,SBD,M
Boys,99.79,DQ,Clinton Banks,College Station A&M Cons,98.66,,,,,Single-ply,SBD,M
Boys,109.77,1,Caden Walker,College Station A&M Cons,107.77,247.21,181.44,240.4,669.05,Single-ply,SBD,M
Boys,109.77,2,Autra Maxey,Navasota,108.32,272.16,138.35,258.55,669.05,Single-ply,SBD,M
Boys,109.77,3,Wyatt Smith,College Station A&M Cons,109.59,244.94,145.15,215.46,605.55,Single-ply,SBD,M
Boys,109.77,4,Justin Latenaro,Conroe Oak Ridge,104.51,226.8,142.88,210.92,580.6,Single-ply,SBD,M
Boys,124.74,5,Frankie Garcia,Conroe Woodlands College Park,109.81,215.46,117.93,226.8,560.19,Single-ply,SBD,M
Boys,109.77,6,James Fluellen,Conroe Oak Ridge,102.19,226.8,106.59,213.19,546.58,Single-ply,SBD,M
Boys,109.77,7,Carlos Escobar,Katy Morton Ranch,103.37,235.87,113.4,192.78,542.04,Single-ply,SBD,M
Boys,109.77,8,Anthony Persutti,Conroe Oak Ridge,107.37,195.04,136.08,188.24,519.36,Single-ply,SBD,M
Boys,124.74,9,Tristian Francis,Houston Washington,109.91,170.1,106.59,199.58,476.27,Single-ply,SBD,M
Boys,109.77,10,Tye Chalker,Conroe Oak Ridge,101.97,185.97,108.86,172.37,467.2,Single-ply,SBD,M
Boys,109.77,11,DeMarcus Johnson,Katy Morton Ranch,106.87,181.44,120.2,149.69,451.32,Single-ply,SBD,M
Boys,109.77,12,Tyler Rapp,Conroe The Woodlands,102.33,172.37,99.79,156.49,428.64,Single-ply,SBD,M
Boys,109.77,13,Kevin Butts,Conroe The Woodlands,103.87,136.08,90.72,136.08,362.87,Single-ply,SBD,M
Boys,109.77,14,Dean Scroggins,Conroe Woodlands College Park,107.14,199.58,92.99,,292.57,Single-ply,SB,M
Boys,109.77,15,Mark Hitt,Bryan,105.82,174.63,97.52,,272.16,Single-ply,SB,M
Boys,124.74,DQ,Jj Bynum,College Station A&M Cons,124.06,,,,,Single-ply,SBD,M
Boys,124.74,2,Nick Alvarez,Montgomery,117.34,276.69,181.44,235.87,694,Single-ply,SBD,M
Boys,124.74,3,Terran Alves,Houston Cypress Woods,122.29,249.48,156.49,226.8,632.76,Single-ply,SBD,M
Boys,124.74,4,Paul Brown,Conroe Oak Ridge,112.85,231.33,145.15,251.74,628.23,Single-ply,SBD,M
Boys,124.74,5,Dimitri Forsythe,Conroe,123.79,206.38,136.08,235.87,578.33,Single-ply,SBD,M
Boys,124.74,6,Steve Stone,Conroe,112.85,242.67,127.01,188.24,557.92,Single-ply,SBD,M
Boys,124.74,7,Sahr Saffa,Katy Morton Ranch,111.31,226.8,102.06,204.12,532.97,Single-ply,SBD,M
Boys,124.74,8,Blake Teasdale,Montgomery,114.53,181.44,131.54,181.44,494.42,Single-ply,SBD,M
Boys,124.74,9,Bradley Carley,Conroe Woodlands College Park,121.15,181.44,115.67,172.37,469.47,Single-ply,SBD,M
Boys,124.74,10,Rj Ybarra,Montgomery,116.39,181.44,124.74,142.88,449.06,Single-ply,SBD,M
Boys,124.74,11,Tim Silva,Conroe The Woodlands,116.26,161.03,92.99,163.29,417.3,Single-ply,SBD,M
Boys,124.74,12,Michael DeJournett,Conroe Woodlands College Park,114.71,156.49,97.52,151.95,405.97,Single-ply,SBD,M
Boys,124.74,13,Keith Lewis,Bryan,120.56,258.55,145.15,,403.7,Single-ply,SB,M
Boys,124.74,14,Chris Fetterman,Conroe The Woodlands,112.22,124.74,97.52,145.15,367.41,Single-ply,SBD,M
Boys,124.74,DQ,Estevan Villarreal,Houston Cypress Woods,110.77,,,,,Single-ply,SBD,M
Boys,124.74+,1,Jacob Bohannon,Navasota,132.22,285.76,181.44,249.48,716.68,Single-ply,SBD,M
Boys,124.74+,2,Mikal Fernandez,Houston Cypress Woods,139.07,335.66,154.22,215.46,705.34,Single-ply,SBD,M
Boys,124.74+,3,Tim Hines,Bryan,138.62,233.6,138.35,238.14,610.08,Single-ply,SBD,M
Boys,124.74+,4,Mark Poteat,Conroe The Woodlands,156.9,267.62,117.93,215.46,601.01,Single-ply,SBD,M
Boys,124.74+,5,Clayton Leeth,Bryan,135.31,235.87,136.08,217.72,589.67,Single-ply,SBD,M
Boys,124.74+,6,Ivan Meistchovich,Conroe Woodlands College Park,125.28,197.31,115.67,185.97,498.95,Single-ply,SBD,M
Boys,124.74+,7,Robbie Belk,Conroe The Woodlands,128.14,142.88,92.99,140.61,376.48,Single-ply,SBD,M
