Division,WeightClassKg,Place,Name,Team,BodyweightKg,Best3SquatKg,Best3BenchKg,Best3DeadliftKg,TotalKg,Equipment,Event,Sex
Girls,44.23,1,Mikayla Mewa,Beaumont West Brook,41.73,102.06,40.82,113.4,256.28,Single-ply,SBD,F
Girls,44.23,2,Katrina Le,Beaumont West Brook,42.91,72.57,38.56,83.91,195.04,Single-ply,SBD,F
Girls,44.23,3,Valerie Arango,Channelview,42.09,68.04,24.95,77.11,170.1,Single-ply,SBD,F
Girls,47.85,1,Madison Williams,Cleveland Tarkington,47.85,97.52,43.09,102.06,242.67,Single-ply,SBD,F
Girls,47.85,2,Christina Varela,Alvin,46.63,81.65,47.63,83.91,213.19,Single-ply,SBD,F
Girls,47.85,3,Paloma Garcia,Alvin,47.63,83.91,36.29,86.18,206.38,Single-ply,SBD,F
Girls,47.85,4,Jocelyn Hernandez,Channelview,46.9,70.31,31.75,79.38,181.44,Single-ply,SBD,F
Girls,47.85,5,Ivanna Lopez,Splendora,45,72.57,34.02,68.04,174.63,Single-ply,SBD,F
Girls,51.94,1,Yessenia Mata,Splendora,50.44,115.67,52.16,120.2,288.03,Single-ply,SBD,F
Girls,51.94,2,Janasha Palmer,Port Arthur Memorial,50.8,95.25,40.82,104.33,240.4,Single-ply,SBD,F
Girls,51.94,3,Crystalvan Phan,Dickinson,51.53,102.06,38.56,83.91,224.53,Single-ply,SBD,F
Girls,51.94,4,Brisa Carmona,Splendora,50.89,92.99,43.09,86.18,222.26,Single-ply,SBD,F
Girls,51.94,5,Maritza Catalan,Channelview,50.98,90.72,36.29,92.99,219.99,Single-ply,SBD,F
Girls,51.94,6,Alma Cortez,Splendora,50.17,90.72,38.56,86.18,215.46,Single-ply,SBD,F
Girls,51.94,7,Keira Rodriguez,Santa Fe,48.81,79.38,34.02,70.31,183.7,Single-ply,SBD,F
Girls,51.94,8,Jaleigh Holloway,Santa Fe,49.8,61.23,34.02,70.31,165.56,Single-ply,SBD,F
Girls,51.94,9,Kiara Trevino,Pasadena Memorial,51.89,54.43,24.95,83.91,163.29,Single-ply,SBD,F
Girls,51.94,10,Madison Godkin,Cleveland Tarkington,51.94,56.7,27.22,70.31,154.22,Single-ply,SBD,F
Girls,51.94,11,Amaya Mendoza,Alvin,49.08,47.63,31.75,72.57,151.95,Single-ply,SBD,F
Girls,51.94,DQ,Bailey English,Beaumont Ozen,51.71,,,,,Single-ply,SBD,F
Girls,56.02,1,Joselin Lara,Channelview,55.79,111.13,40.82,113.4,265.35,Single-ply,SBD,F
Girls,56.02,2,Joslyn Hall,Beaumont West Brook,54.88,104.33,56.7,102.06,263.08,Single-ply,SBD,F
Girls,56.02,3,Madalyn Hollingsworth,Cleveland Tarkington,55.97,79.38,47.63,99.79,226.8,Single-ply,SBD,F
Girls,56.02,4,Miranda Godkin,Cleveland Tarkington,53.84,79.38,45.36,95.25,219.99,Single-ply,SBD,F
Girls,56.02,5,Alyssa Morales,Galveston Ball,54.88,79.38,40.82,92.99,213.19,Single-ply,SBD,F
Girls,56.02,6,Alexis Ehrlich,Cleveland Tarkington,52.62,77.11,31.75,92.99,201.85,Single-ply,SBD,F
Girls,56.02,7,Katia Davis,Beaumont Central,53.07,63.5,40.82,95.25,199.58,Single-ply,SBD,F
Girls,56.02,8,Agustina Villarreal,Alvin,55.61,56.7,20.41,77.11,154.22,Single-ply,SBD,F
Girls,60.1,1,Daniella Faz,Conroe Caney Creek,57.97,113.4,52.16,117.93,283.5,Single-ply,SBD,F
Girls,60.1,2,Caitlynn Reviere,Beaumont West Brook,58.24,99.79,56.7,108.86,265.35,Single-ply,SBD,F
Girls,60.1,3,Alissa Cassell,Splendora,59.42,90.72,47.63,99.79,238.14,Single-ply,SBD,F
Girls,60.1,4,Annabelle O'Day,Santa Fe,57.88,79.38,52.16,102.06,233.6,Single-ply,SBD,F
Girls,60.1,5,Karina Recendez,Alvin,59.42,90.72,43.09,97.52,231.33,Single-ply,SBD,F
Girls,60.1,6,Isela Garza,Conroe Caney Creek,58.33,83.91,43.09,102.06,229.06,Single-ply,SBD,F
Girls,60.1,7,Karli Kalischko,Alvin,56.7,86.18,47.63,92.99,226.8,Single-ply,SBD,F
Girls,60.1,8,Leila Abel,Beaumont West Brook,60.06,92.99,38.56,95.25,226.8,Single-ply,SBD,F
Girls,60.1,9,Gracie Cervantes,Santa Fe,59.42,83.91,38.56,92.99,215.46,Single-ply,SBD,F
Girls,60.1,10,Jasmine Yanez,Channelview,60.06,81.65,38.56,90.72,210.92,Single-ply,SBD,F
Girls,60.1,11,Kiara Ochoa,Port Arthur Memorial,58.69,77.11,38.56,90.72,206.38,Single-ply,SBD,F
Girls,60.1,12,Ashley Taunton,Beaumont West Brook,58.6,74.84,40.82,88.45,204.12,Single-ply,SBD,F
Girls,60.1,13,Nuhoang Phan,Dickinson,59.06,102.06,,102.06,204.12,Single-ply,SD,F
Girls,60.1,14,Tyla Jackson,Beaumont Ozen,57.42,68.04,38.56,90.72,197.31,Single-ply,SBD,F
Girls,60.1,15,Aide Villantes,Conroe Caney Creek,58.42,74.84,38.56,72.57,185.97,Single-ply,SBD,F
Girls,60.1,16,Paige Erigan,Cleveland Tarkington,56.25,63.5,24.95,77.11,165.56,Single-ply,SBD,F
Girls,60.1,17,Payton Bailey,Santa Fe,57.79,52.16,,,52.16,Single-ply,S,F
Girls,60.1,DQ,Hannah Chavis,Beaumont Ozen,59.87,,,,,Single-ply,SBD,F
Girls,67.36,1,Sara Persons,Alvin,62.23,108.86,61.23,117.93,288.03,Single-ply,SBD,F
Girls,67.36,2,Ahniyah Walker,Beaumont West Brook,66.41,104.33,52.16,113.4,269.89,Single-ply,SBD,F
Girls,67.36,3,Paris Williams,Beaumont West Brook,64.68,108.86,38.56,120.2,267.62,Single-ply,SBD,F
Girls,67.36,4,Ashtyn Yovan,Santa Fe,64.23,102.06,47.63,106.59,256.28,Single-ply,SBD,F
Girls,67.36,5,Camille Thompson,Beaumont West Brook,66.5,102.06,45.36,108.86,256.28,Single-ply,SBD,F
Girls,67.36,6,Taylor Chapman,Alvin,62.69,92.99,56.7,99.79,249.48,Single-ply,SBD,F
Girls,67.36,7,Camila Recendez,Alvin,64.86,95.25,36.29,106.59,238.14,Single-ply,SBD,F
Girls,67.36,8,Jacie Melancon,Santa Fe,60.69,90.72,45.36,92.99,229.06,Single-ply,SBD,F
Girls,67.36,9,Raeann Hernandez,Alvin,65.77,77.11,40.82,111.13,229.06,Single-ply,SBD,F
Girls,67.36,10,Jaiden Denley,Beaumont West Brook,65.95,86.18,40.82,102.06,229.06,Single-ply,SBD,F
Girls,67.36,11,Jakayla Jackson,Beaumont Central,60.42,86.18,36.29,92.99,215.46,Single-ply,SBD,F
Girls,67.36,12,Gia Wilson,Splendora,61.23,74.84,52.16,83.91,210.92,Single-ply,SBD,F
Girls,67.36,13,Hailey Keeling,Pearland Dawson,62.32,81.65,43.09,79.38,204.12,Single-ply,SBD,F
Girls,67.36,14,Hailey Kopesky,Cleveland Tarkington,65.14,72.57,31.75,77.11,181.44,Single-ply,SBD,F
Girls,67.36,15,Lauren Boggs,Texas City,67.36,68.04,34.02,77.11,179.17,Single-ply,SBD,F
Girls,75.07,1,Bobbie Cooksie,Pearland,72.57,124.74,79.38,142.88,347,Single-ply,SBD,F
Girls,75.07,2,Jennifer Sierra,Channelview,73.03,138.35,54.43,136.08,328.85,Single-ply,SBD,F
Girls,75.07,3,Karina Macias,Alvin,74.12,124.74,47.63,145.15,317.51,Single-ply,SBD,F
Girls,75.07,4,Julissa Recendez,Alvin,72.57,120.2,56.7,136.08,312.98,Single-ply,SBD,F
Girls,75.07,5,Mackenzie Keel,Splendora,71.67,129.27,61.23,106.59,297.1,Single-ply,SBD,F
Girls,75.07,6,Tory Rogers,Conroe Caney Creek,75.07,120.2,63.5,102.06,285.76,Single-ply,SBD,F
Girls,75.07,7,Savannah Armer,Conroe Caney Creek,74.75,120.2,70.31,92.99,283.5,Single-ply,SBD,F
Girls,75.07,8,Lauren Harris,Splendora,73.03,117.93,61.23,102.06,281.23,Single-ply,SBD,F
Girls,75.07,9,Alyssa Redeaux,Beaumont West Brook,71.58,95.25,61.23,117.93,274.42,Single-ply,SBD,F
Girls,75.07,10,Betty Heredia,Conroe Caney Creek,73.75,108.86,43.09,115.67,267.62,Single-ply,SBD,F
Girls,75.07,11,Mary Jane Luna,Pasadena Memorial,69.76,106.59,38.56,111.13,256.28,Single-ply,SBD,F
Girls,75.07,12,Abigail Westhouse,Galveston Ball,73.84,88.45,43.09,108.86,240.4,Single-ply,SBD,F
Girls,75.07,13,Haylee Wolfe,Santa Fe,74.48,90.72,45.36,92.99,229.06,Single-ply,SBD,F
Girls,75.07,14,Jessica Sierra,Channelview,71.21,68.04,38.56,115.67,222.26,Single-ply,SBD,F
Girls,75.07,15,Shaylin White,Port Arthur Memorial,68.04,52.16,36.29,90.72,179.17,Single-ply,SBD,F
Girls,75.07,16,Anaiya Darkins,Beaumont Central,69.58,43.09,40.82,92.99,176.9,Single-ply,SBD,F
Girls,75.07,17,Lacey Johnson,Pearland Dawson,70.58,88.45,43.09,40.82,172.37,Single-ply,SBD,F
Girls,75.07,18,Krissy Prier,Pearland Dawson,71.03,65.77,,97.52,163.29,Single-ply,SD,F
Girls,75.07,19,Diamond Mayfield,Beaumont Ozen,74.12,40.82,,36.29,77.11,Single-ply,SD,F
Girls,82.33,1,Morgan Boody,Santa Fe,77.2,156.49,70.31,124.74,351.53,Single-ply,SBD,F
Girls,82.33,2,Breanna Redeaux,Beaumont West Brook,78.11,147.42,54.43,120.2,322.05,Single-ply,SBD,F
Girls,82.33,3,Wendy Chavez,Splendora,79.92,102.06,52.16,122.47,276.69,Single-ply,SBD,F
Girls,82.33,4,Marie LeCompte,Santa Fe,75.57,117.93,45.36,111.13,274.42,Single-ply,SBD,F
Girls,82.33,5,Kaylin White,Port Arthur Memorial,81.83,88.45,43.09,127.01,258.55,Single-ply,SBD,F
Girls,82.33,6,Stevie Goodman,Alvin,79.83,99.79,54.43,102.06,256.28,Single-ply,SBD,F
Girls,82.33,7,Trenity Clavelle,Port Arthur Memorial,80.74,90.72,47.63,115.67,254.01,Single-ply,SBD,F
Girls,82.33,8,Markayla Rolax,Beaumont West Brook,77.66,72.57,56.7,102.06,231.33,Single-ply,SBD,F
Girls,82.33,9,Cassidy Casey,Pearland Dawson,81.1,88.45,40.82,92.99,222.26,Single-ply,SBD,F
Girls,82.33,10,Kya Peterson,Alvin,75.57,77.11,38.56,99.79,215.46,Single-ply,SBD,F
Girls,82.33,11,Tamara Gonzales,Alvin,77.47,77.11,38.56,83.91,199.58,Single-ply,SBD,F
Girls,82.33,DQ,Kelsey Rogers,Beaumont Ozen,82.1,,,,,Single-ply,SBD,F
Girls,82.33,DQ,De'Asia Nickerson,Beaumont Ozen,82.1,,,,,Single-ply,SBD,F
Girls,90.04,1,Millyons McMillan,Beaumont West Brook,88.27,136.08,70.31,163.29,369.68,Single-ply,SBD,F
Girls,90.04,2,Carly Burns,Beaumont West Brook,89.27,149.69,61.23,142.88,353.8,Single-ply,SBD,F
Girls,90.04,3,Raelyn Peddy,Conroe Caney Creek,88.54,129.27,70.31,120.2,319.78,Single-ply,SBD,F
Girls,90.04,4,Madison Eason,Splendora,86.36,106.59,61.23,120.2,288.03,Single-ply,SBD,F
Girls,90.04,5,Savannah Hebert,Conroe Caney Creek,84.91,99.79,47.63,102.06,249.48,Single-ply,SBD,F
Girls,90.04,6,Veronica Pena,Cleveland Tarkington,83.19,97.52,49.9,99.79,247.21,Single-ply,SBD,F
Girls,90.04,7,Madelynn Gustafson,Dickinson,85.46,95.25,45.36,104.33,244.94,Single-ply,SBD,F
Girls,90.04,8,Stephanie Figueroa,Pasadena Memorial,85,90.72,36.29,81.65,208.65,Single-ply,SBD,F
Girls,90.04,9,Sadie White,Santa Fe,85.09,65.77,,83.91,149.69,Single-ply,SD,F
Girls,100.02,1,Madeline Genuardi,Beaumont West Brook,99.52,136.08,77.11,133.81,347,Single-ply,SBD,F
Girls,100.02,2,Daniella Contreras,Alvin,96.71,136.08,65.77,122.47,324.32,Single-ply,SBD,F
Girls,100.02,3,Trinity Ruiz,Alvin,99.7,108.86,65.77,113.4,288.03,Single-ply,SBD,F
Girls,100.02,4,Alexia Aguirre,Dickinson,91.99,97.52,47.63,113.4,258.55,Single-ply,SBD,F
Girls,100.02,5,Kylie Albritton,Pearland,94.08,102.06,38.56,92.99,233.6,Single-ply,SBD,F
Girls,100.02,6,Maile Ramirez,Alvin,98.16,86.18,34.02,90.72,210.92,Single-ply,SBD,F
Girls,100.02,7,Cierra Felder,La Marque,98.88,97.52,40.82,70.31,208.65,Single-ply,SBD,F
Girls,100.02,8,Cydney Griffin,Beaumont West Brook,99.61,145.15,,,145.15,Single-ply,S,F
Girls,117.71,1,Ka Lynn Broadnax,Pearland Dawson,113.49,136.08,54.43,167.83,358.34,Single-ply,SBD,F
Girls,117.71,2,Madison Hall,Channelview,113.49,129.27,63.5,120.2,312.98,Single-ply,SBD,F
Girls,117.71,3,Hayli Pennington,Alvin,107.59,142.88,52.16,95.25,290.3,Single-ply,SBD,F
Girls,117.71,4,Jalecia Myles,Dickinson,112.9,113.4,49.9,108.86,272.16,Single-ply,SBD,F
Girls,117.71,5,Lauren Martinez,Texas City,114.12,129.27,45.36,90.72,265.35,Single-ply,SBD,F
Girls,117.71,6,Maria Limon,Alvin,116.94,122.47,49.9,81.65,254.01,Single-ply,SBD,F
Girls,117.71+,1,Belen Almader,Alvin,126.82,108.86,52.16,113.4,274.42,Single-ply,SBD,F
Girls,117.71+,2,Ishianna Jones,Beaumont Ozen,124.83,63.5,34.02,90.72,188.24,Single-ply,SBD,F
Girls,117.71+,3,Haley Blumrich,Pearland Dawson,122.38,,45.36,129.27,174.63,Single-ply,BD,F
