Division,WeightClassKg,Place,Name,Team,BodyweightKg,Best3SquatKg,Best3BenchKg,Best3DeadliftKg,TotalKg,Equipment,Event,Sex
Boys,51.71,1,Austin Serna,Overton,51.26,129.27,81.65,136.08,347,Single-ply,SBD,M
Boys,51.71,2,Brady Rose,Mineola,51.71,108.86,61.23,106.59,276.69,Single-ply,SBD,M
Boys,51.71,3,Ashton Griffin,Lindale,49.9,90.72,63.5,117.93,272.16,Single-ply,SBD,M
Boys,51.71,4,Brian Lambert,Hawkins,43.54,88.45,56.7,102.06,247.21,Single-ply,SBD,M
Boys,51.71,5,Adam Solis,Center,50.8,63.5,63.5,92.99,219.99,Single-ply,SBD,M
Boys,51.71,6,Loyd Mcgarth,Hawkins,33.57,47.63,29.48,74.84,151.95,Single-ply,SBD,M
Boys,51.71,7,Lin Gillham,Tyler Grace Community School,50.35,86.18,,,86.18,Single-ply,S,M
Boys,51.71,8,Dakota Pleratt,Ore City,39.01,81.65,,,81.65,Single-ply,S,M
Boys,51.71,DQ,Justin Massy,Arp,51.71,,,,,Single-ply,S,M
Boys,55.79,1,Melvin Suell,Center,54.88,138.35,79.38,161.03,378.75,Single-ply,SBD,M
Boys,55.79,2,John Blackstock,Elysian Fields,54.88,127.01,72.57,158.76,358.34,Single-ply,SBD,M
Boys,55.79,3,Tyler West,Shelbyville,53.98,133.81,70.31,142.88,347,Single-ply,SBD,M
Boys,55.79,4,Josh McClain,Cushing,55.79,83.91,52.16,90.72,226.8,Single-ply,SBD,M
Boys,59.87,1,Dalton Simonek,Bullard,59.42,156.49,88.45,170.1,415.04,Single-ply,SBD,M
Boys,59.87,2,Jesse Roach,Overton,59.42,127.01,92.99,161.03,381.02,Single-ply,SBD,M
Boys,59.87,3,Alec James,Bullard,58.97,145.15,72.57,158.76,376.48,Single-ply,SBD,M
Boys,59.87,4,Riley Foshee,Lindale,59.42,149.69,70.31,151.95,371.95,Single-ply,SBD,M
Boys,59.87,5,Dillon Windham,Center,58.97,106.59,83.91,124.74,315.25,Single-ply,SBD,M
Boys,59.87,6,Quad Tallifero,Gladewater Sabine,59.42,124.74,61.23,124.74,310.71,Single-ply,SBD,M
Boys,59.87,7,John Phillips,Lindale,58.51,108.86,58.97,140.61,308.44,Single-ply,SBD,M
Boys,59.87,8,Austin Edwards,Garrison,58.51,102.06,68.04,131.54,301.64,Single-ply,SBD,M
Boys,59.87,9,Justin Vanderwater,Price Carlisle,56.25,113.4,68.04,115.67,297.1,Single-ply,SBD,M
Boys,59.87,10,Jesus Quintero,Price Carlisle,58.51,111.13,68.04,115.67,294.84,Single-ply,SBD,M
Boys,59.87,11,Howard Watts,San Augustine,57.61,92.99,79.38,102.06,274.42,Single-ply,SBD,M
Boys,59.87,12,Lee Ware,Troup,58.97,113.4,45.36,99.79,258.55,Single-ply,SBD,M
Boys,59.87,DQ,Dillon Windham,Center,58.97,,,,,Single-ply,SBD,M
Boys,67.13,1,Jeremy Small,Center,67.13,242.67,106.59,233.6,582.87,Single-ply,SBD,M
Boys,67.13,2,Alan Phillips,Ore City,66.68,179.17,83.91,208.65,471.74,Single-ply,SBD,M
Boys,67.13,3,Keonddre Davis,Troup,66.68,190.51,88.45,170.1,449.06,Single-ply,SBD,M
Boys,67.13,4,John Michael Florey,Overton,65.77,172.37,92.99,163.29,428.64,Single-ply,SBD,M
Boys,67.13,5,Dylan Lantz,Overton,66.04,161.03,106.59,158.76,426.38,Single-ply,SBD,M
Boys,67.13,6,Tim Bailey,Lindale,64.86,158.76,95.25,165.56,419.57,Single-ply,SBD,M
Boys,67.13,7,Nathan Ratcliff,Lindale,62.14,147.42,68.04,165.56,381.02,Single-ply,SBD,M
Boys,67.13,8,Zach Jackson,Elysian Fields,63.96,124.74,102.06,151.95,378.75,Single-ply,SBD,M
Boys,67.13,9,Brady Romans,Cumby,61.23,140.61,88.45,147.42,376.48,Single-ply,SBD,M
Boys,67.13,10,Jacquan Williams,Mineola,63.5,136.08,77.11,163.29,376.48,Single-ply,SBD,M
Boys,67.13,11,Charleston Fresman,Ore City,66.22,127.01,86.18,138.35,351.53,Single-ply,SBD,M
Boys,67.13,12,Bradley Mitchell,Gilmer Union Hill,67.13,117.93,83.91,147.42,349.27,Single-ply,SBD,M
Boys,67.13,13,S Collinsworth,Joaquin,62.14,124.74,65.77,147.42,337.93,Single-ply,SBD,M
Boys,67.13,14,Colt Simmons,Cushing,62.14,122.47,65.77,142.88,331.12,Single-ply,SBD,M
Boys,67.13,15,Conrad Tyckson,Gladewater Sabine,66.68,122.47,58.97,149.69,331.12,Single-ply,SBD,M
Boys,67.13,16,Ramiro Garcia,New London West Rusk,62.6,113.4,74.84,140.61,328.85,Single-ply,SBD,M
Boys,67.13,17,Alex Renfroe,San Augustine,64.86,81.65,70.31,129.27,281.23,Single-ply,SBD,M
Boys,67.13,18,Z Mcdaniel,Joaquin,64.41,74.84,29.48,61.23,165.56,Single-ply,SBD,M
Boys,67.13,DQ,Eric Benton,Bullard,67.13,,,,,Single-ply,SBD,M
Boys,67.13,DQ,Josh Thornhill,Quitman,65.77,,,,,Single-ply,SBD,M
Boys,67.13,DQ,Hayden Stanley,Tyler Grace Community School,67.13,,,,,Single-ply,SBD,M
Boys,67.13,DQ,Steven Stanley,Tyler Grace Community School,67.13,,,,,Single-ply,SBD,M
Boys,74.84,1,Austin McCasland,Overton,72.57,208.65,113.4,188.24,510.29,Single-ply,SBD,M
Boys,74.84,2,Stone Leach,Ore City,70.99,188.24,117.93,192.78,498.95,Single-ply,SBD,M
Boys,74.84,3,Casey Rinehart,Overton,74.39,195.04,117.93,183.7,496.68,Single-ply,SBD,M
Boys,74.84,4,Santos Gonzales,New London West Rusk,70.31,181.44,99.79,210.92,492.15,Single-ply,SBD,M
Boys,74.84,5,Justin Brown,Shelbyville,73.48,188.24,111.13,188.24,487.61,Single-ply,SBD,M
Boys,74.84,6,Clay Price,Lindale,73.03,197.31,90.72,197.31,485.34,Single-ply,SBD,M
Boys,74.84,7,Justin Lovett,Center,68.49,163.29,113.4,179.17,455.86,Single-ply,SBD,M
Boys,74.84,8,Jacob Golden,Quitman,68.04,165.56,113.4,172.37,451.32,Single-ply,SBD,M
Boys,74.84,9,Houston Alexander,Bullard,71.21,158.76,99.79,190.51,449.06,Single-ply,SBD,M
Boys,74.84,10,Clay Coleman,Elysian Fields,72.57,158.76,111.13,170.1,439.98,Single-ply,SBD,M
Boys,74.84,11,Chase Hatton,Elysian Fields,72.12,149.69,90.72,192.78,433.18,Single-ply,SBD,M
Boys,74.84,12,Ray Jackson,Cushing,74.39,158.76,108.86,158.76,426.38,Single-ply,SBD,M
Boys,74.84,13,Christian Tyre,Hawkins,71.21,167.83,92.99,163.29,424.11,Single-ply,SBD,M
Boys,74.84,14,Chris Harris,Overton,73.48,158.76,90.72,158.76,408.23,Single-ply,SBD,M
Boys,74.84,15,Adam Galaz,Lindale,72.12,172.37,83.91,145.15,401.43,Single-ply,SBD,M
Boys,74.84,16,Daniel McHenry,Lindale,68.95,145.15,81.65,170.1,396.89,Single-ply,SBD,M
Boys,74.84,17,Bruce Woods,Elysian Fields,71.21,142.88,74.84,147.42,365.14,Single-ply,SBD,M
Boys,74.84,18,Dakota Farias,Price Carlisle,70.76,136.08,90.72,136.08,362.87,Single-ply,SBD,M
Boys,74.84,19,Josh Reeves,Ore City,68.49,108.86,70.31,156.49,335.66,Single-ply,SBD,M
Boys,74.84,20,A Dean,Joaquin,67.59,120.2,65.77,136.08,322.05,Single-ply,SBD,M
Boys,74.84,21,Mickey Harrison,San Augustine,73.94,90.72,72.57,158.76,322.05,Single-ply,SBD,M
Boys,74.84,22,Garrett Powell,Lindale,71.67,124.74,74.84,120.2,319.78,Single-ply,SBD,M
Boys,74.84,23,Louis Collins,Oakwood,68.04,106.59,86.18,117.93,310.71,Single-ply,SBD,M
Boys,74.84,24,Henry Ortiz,Price Carlisle,73.03,115.67,72.57,117.93,306.17,Single-ply,SBD,M
Boys,74.84,25,N Cheatwood,Joaquin,69.85,102.06,70.31,124.74,297.1,Single-ply,SBD,M
Boys,74.84,26,Jason Kennedy,Hawkins,73.94,102.06,61.23,131.54,294.84,Single-ply,SBD,M
Boys,74.84,27,Oliver Tan,Gladewater Sabine,70.76,95.25,61.23,111.13,267.62,Single-ply,SBD,M
Boys,74.84,28,Edgar Morales,Mineola,70.76,149.69,,,149.69,Single-ply,S,M
Boys,74.84,29,Alex Yancey,Overton,71.67,133.81,,,133.81,Single-ply,S,M
Boys,74.84,DQ,Juan Garza,Quitman,72.57,,,,,Single-ply,S,M
Boys,74.84,DQ,Dewayne Fisher,New London West Rusk,74.84,,,,,Single-ply,S,M
Boys,74.84,DQ,S Dickenson,Joaquin,74.84,,,,,Single-ply,S,M
Boys,74.84,DQ,A Woodfen,Joaquin,74.84,,,,,Single-ply,S,M
Boys,74.84,DQ,Mitchell McCormick,Laird Hill Leveretts Chapel,74.84,,,,,Single-ply,S,M
Boys,74.84,DQ,Andrew Martin,Gilmer Union Hill,74.84,,,,,Single-ply,S,M
Boys,82.1,1,Cody Dobiyanski,Lindale,79.83,206.38,115.67,226.8,548.85,Single-ply,SBD,M
Boys,82.1,2,Terronce Johnson,Lindale,80.29,197.31,127.01,213.19,537.51,Single-ply,SBD,M
Boys,82.1,3,Vinny Cottingham,Bullard,78.93,185.97,115.67,190.51,492.15,Single-ply,SBD,M
Boys,82.1,4,S. Taylor,Joaquin,80.74,183.7,97.52,183.7,464.93,Single-ply,SBD,M
Boys,82.1,5,Kyle Owens,Lindale,78.02,167.83,99.79,188.24,455.86,Single-ply,SBD,M
Boys,82.1,6,Nathan Sears,Center,79.83,170.1,113.4,170.1,453.59,Single-ply,SBD,M
Boys,82.1,7,Blake Johnson,Lindale,81.65,165.56,86.18,176.9,428.64,Single-ply,SBD,M
Boys,82.1,8,Z Mason,Joaquin,81.65,147.42,83.91,158.76,390.09,Single-ply,SBD,M
Boys,82.1,9,Dillon Brown,Shelbyville,75.3,161.03,70.31,142.88,374.21,Single-ply,SBD,M
Boys,82.1,10,Clay Alphin,Price Carlisle,82.1,142.88,92.99,136.08,371.95,Single-ply,SBD,M
Boys,82.1,11,Zach Kent,Gladewater Sabine,81.65,124.74,83.91,147.42,356.07,Single-ply,SBD,M
Boys,82.1,12,J. Burleson,Joaquin,80.29,151.95,65.77,136.08,353.8,Single-ply,SBD,M
Boys,82.1,13,Tyran Whestone,Ore City,78.02,90.72,77.11,95.25,263.08,Single-ply,SBD,M
Boys,82.1,DQ,Greg Moore,Overton,82.1,,,,,Single-ply,SBD,M
Boys,82.1,DQ,Jerrod Stewart,Tyler Grace Community School,82.1,,,,,Single-ply,SBD,M
Boys,82.1,DQ,Brice Dover,Bullard,82.1,,,,,Single-ply,SBD,M
Boys,89.81,1,Kevinski Pitts,Center,89.81,242.67,131.54,240.4,614.62,Single-ply,SBD,M
Boys,89.81,2,Carlos Riviera,Mineola,85.28,244.94,138.35,226.8,610.08,Single-ply,SBD,M
Boys,89.81,3,Zach Howard,Arp,83.46,235.87,129.27,208.65,573.79,Single-ply,SBD,M
Boys,89.81,4,John Ryzman,Lindale,84.82,183.7,122.47,197.31,503.49,Single-ply,SBD,M
Boys,89.81,5,Ruben Sanchez,Mineola,83.91,192.78,102.06,192.78,487.61,Single-ply,SBD,M
Boys,89.81,6,Khadefey Davis,San Augustine,85.28,170.1,97.52,201.85,469.47,Single-ply,SBD,M
Boys,89.81,7,Michael Reynolds,Gladewater Sabine,83.46,149.69,111.13,199.58,460.4,Single-ply,SBD,M
Boys,89.81,8,Sam Saunders,Lindale,88,163.29,95.25,199.58,458.13,Single-ply,SBD,M
Boys,89.81,9,Naylan Phelps,Bullard,85.28,161.03,86.18,172.37,419.57,Single-ply,SBD,M
Boys,89.81,10,Dillon Searcy,Bullard,83.46,142.88,92.99,176.9,412.77,Single-ply,SBD,M
Boys,89.81,11,Ty Tunstall,Cushing,88.9,149.69,97.52,158.76,405.97,Single-ply,SBD,M
Boys,89.81,12,Clifford Dial,Ore City,83.01,147.42,88.45,154.22,390.09,Single-ply,SBD,M
Boys,89.81,13,Pedro Vargas,Price Carlisle,89.36,140.61,102.06,138.35,381.02,Single-ply,SBD,M
Boys,89.81,14,Pete Laughlin,Hawkins,88,120.2,99.79,149.69,369.68,Single-ply,SBD,M
Boys,89.81,15,Collin Ashbrick,Tyler Grace Community School,86.18,133.81,68.04,124.74,326.59,Single-ply,SBD,M
Boys,89.81,16,Nester Santos,Mineola,84.37,163.29,,,163.29,Single-ply,S,M
Boys,89.81,DQ,Timothy McGrath,Hawkins,85.28,,,,,Single-ply,S,M
Boys,99.79,1,Levi West,Overton,98.43,204.12,138.35,219.99,562.45,Single-ply,SBD,M
Boys,99.79,2,Dillon Bates,Mineola,94.35,201.85,133.81,204.12,539.77,Single-ply,SBD,M
Boys,99.79,3,John Caruso,Mineola,95.25,197.31,131.54,208.65,537.51,Single-ply,SBD,M
Boys,99.79,4,Trevor Rumbelow,Bullard,91.63,195.04,88.45,206.38,489.88,Single-ply,SBD,M
Boys,99.79,5,Trevor Hudson,Mineola,99.34,188.24,111.13,190.51,489.88,Single-ply,SBD,M
Boys,99.79,6,R Mcgee,Joaquin,98.43,183.7,111.13,156.49,451.32,Single-ply,SBD,M
Boys,99.79,7,Aaron Liker,Center,95.25,165.56,111.13,163.29,439.98,Single-ply,SBD,M
Boys,99.79,8,Jose Lopez,New London West Rusk,98.88,165.56,86.18,188.24,439.98,Single-ply,SBD,M
Boys,99.79,9,Donnie Bradley,Hawkins,94.35,158.76,97.52,163.29,419.57,Single-ply,SBD,M
Boys,99.79,10,Jordan Hagar,Gladewater Sabine,98.43,154.22,104.33,154.22,412.77,Single-ply,SBD,M
Boys,99.79,11,Cody Richardson,Gladewater Sabine,93.89,136.08,106.59,151.95,394.63,Single-ply,SBD,M
Boys,99.79,12,Colby Spencer,Cushing,95.71,149.69,102.06,142.88,394.63,Single-ply,SBD,M
Boys,99.79,13,Richard Hasten,Hawkins,93.89,158.76,88.45,131.54,378.75,Single-ply,SBD,M
Boys,99.79,14,Dakota Dezort,Cushing,93.44,136.08,86.18,142.88,365.14,Single-ply,SBD,M
Boys,99.79,15,Robert Bloys,Shelbyville,92.08,142.88,70.31,142.88,356.07,Single-ply,SBD,M
Boys,99.79,16,Tk Campbell,Ore City,93.44,136.08,72.57,138.35,347,Single-ply,SBD,M
Boys,99.79,17,H Cummings,Joaquin,92.99,138.35,,,138.35,Single-ply,S,M
Boys,99.79,DQ,Johnathan Moser,Ore City,99.34,,,,,Single-ply,S,M
Boys,99.79,DQ,Billy Ray Murphy,New London West Rusk,99.79,,,,,Single-ply,S,M
Boys,99.79,DQ,Dakota Pepper,New London West Rusk,99.79,,,,,Single-ply,S,M
Boys,99.79,DQ,Michael Hernandez,Center,97.52,,,,,Single-ply,S,M
Boys,99.79,DQ,Trever Hubbard,Center,99.79,,,,,Single-ply,S,M
Boys,109.77,1,Terrance Daniels,Gladewater Sabine,101.15,217.72,140.61,226.8,585.13,Single-ply,SBD,M
Boys,109.77,2,Ty Lawless,Elysian Fields,105.23,233.6,113.4,233.6,580.6,Single-ply,SBD,M
Boys,109.77,3,Cameron Bradbury,Lindale,101.6,231.33,129.27,217.72,578.33,Single-ply,SBD,M
Boys,109.77,4,Michael Golden,Quitman,107.5,217.72,140.61,217.72,576.06,Single-ply,SBD,M
Boys,109.77,5,Kyle Youngblood,Laird Hill Leveretts Chapel,108.41,204.12,170.1,188.24,562.45,Single-ply,SBD,M
Boys,109.77,6,Christian Noyola,Troup,107.5,210.92,142.88,195.04,548.85,Single-ply,SBD,M
Boys,109.77,7,Chase Boyd,Gilmer Union Hill,104.33,190.51,113.4,215.46,519.36,Single-ply,SBD,M
Boys,109.77,8,Chris White,Gladewater Sabine,106.59,163.29,136.08,183.7,483.08,Single-ply,SBD,M
Boys,109.77,9,Logan Furlow,Shelbyville,109.77,183.7,95.25,183.7,462.66,Single-ply,SBD,M
Boys,109.77,10,Quin Gates,Garrison,104.78,167.83,95.25,192.78,455.86,Single-ply,SBD,M
Boys,109.77,11,Matt Foot,Lindale,107.05,165.56,97.52,165.56,428.64,Single-ply,SBD,M
Boys,109.77,12,Miguel Onate,Center,103.42,154.22,99.79,158.76,412.77,Single-ply,SBD,M
Boys,109.77,13,Michael Smith #11,Center,101.6,142.88,97.52,165.56,405.97,Single-ply,SBD,M
Boys,109.77,14,Levi Wingate,New London West Rusk,102.51,131.54,102.06,149.69,383.29,Single-ply,SBD,M
Boys,109.77,15,Austin Richardson,Bullard,100.24,149.69,81.65,149.69,381.02,Single-ply,SBD,M
Boys,109.77,16,Caleb Hudspeth,Center,103.42,138.35,86.18,145.15,369.68,Single-ply,SBD,M
Boys,109.77,17,Adrian Roberson,Troup,103.87,102.06,86.18,138.35,326.59,Single-ply,SBD,M
Boys,109.77,18,Jay Horan,Gladewater Sabine,104.78,131.54,61.23,120.2,312.98,Single-ply,SBD,M
Boys,109.77,DQ,BriDarian Dodd,Center,108.86,,,,,Single-ply,SBD,M
Boys,109.77,DQ,Brock Bower,New London West Rusk,109.77,,,,,Single-ply,SBD,M
Boys,109.77,DQ,J. McDaniel,Joaquin,109.77,,,,,Single-ply,SBD,M
Boys,124.74,1,Jacob Alford,Lindale,121.11,294.84,165.56,231.33,691.73,Single-ply,SBD,M
Boys,124.74,2,Tyler Hudson,Elysian Fields,124.74,226.8,142.88,170.1,539.77,Single-ply,SBD,M
Boys,124.74,3,Logan Springs,Gladewater Sabine,112.49,197.31,129.27,199.58,526.17,Single-ply,SBD,M
Boys,124.74,4,Allen Weeks,Shelbyville,111.58,204.12,115.67,195.04,514.83,Single-ply,SBD,M
Boys,124.74,5,Joeseph Crane,Quitman,110.22,206.38,117.93,179.17,503.49,Single-ply,SBD,M
Boys,124.74,6,Michael Provost,Cushing,121.56,195.04,120.2,185.97,501.22,Single-ply,SBD,M
Boys,124.74,7,Allias Sardenta,Oakwood,114.31,181.44,92.99,181.44,455.86,Single-ply,SBD,M
Boys,124.74,8,Jeremy Wiggington,Elysian Fields,124.28,183.7,104.33,167.83,455.86,Single-ply,SBD,M
Boys,124.74,9,Johnny Blueford,San Augustine,116.12,147.42,92.99,208.65,449.06,Single-ply,SBD,M
Boys,124.74,10,J Wilburn,Joaquin,114.31,142.88,61.23,120.2,324.32,Single-ply,SBD,M
Boys,124.74,11,Coleman Krause,Lindale,117.48,181.44,,,181.44,Single-ply,S,M
Boys,124.74,12,Adam Hearing,Lindale,117.93,181.44,,,181.44,Single-ply,S,M
Boys,124.74+,1,Cordero Hudson,Troup,155.58,256.28,136.08,226.8,619.15,Single-ply,SBD,M
Boys,124.74+,2,Sam Schomp,Lindale,129.73,226.8,131.54,217.72,576.06,Single-ply,SBD,M
Boys,124.74+,3,Ryan Burgess,Lindale,159.66,244.94,117.93,204.12,566.99,Single-ply,SBD,M
Boys,124.74+,4,Clinton Powell,Garrison,139.25,238.14,117.93,183.7,539.77,Single-ply,SBD,M
Boys,124.74+,5,Montana Duncan,Mineola,127.46,190.51,127.01,192.78,510.29,Single-ply,SBD,M
Boys,124.74+,6,Jon Smith,Bullard,143.79,188.24,120.2,190.51,498.95,Single-ply,SBD,M
Boys,124.74+,7,Brian Wright,Garrison,128.37,181.44,115.67,170.1,467.2,Single-ply,SBD,M
Boys,124.74+,8,Devontae Parks,San Augustine,127.46,136.08,106.59,147.42,390.09,Single-ply,SBD,M
Boys,124.74+,DQ,D'Land Jones,New London West Rusk,127.01,,,,,Single-ply,SBD,M
