Name,Age,Sex,Equipment,Division,Event,BodyweightKg,WeightClassKg,Best3SquatKg,Best3BenchKg,Bench4Kg,Best3DeadliftKg,TotalKg,Deadlift4Kg,Tested,Place
John Kazmar,39,M,Raw,MSR-AD,B,96.52,100,,108.86,,,108.86,,Yes,1
Doug Wyrobowski,41,M,Raw,MM1R-AD,B,89.63,90,,147.42,,,147.42,,Yes,1
Jerry Prazak,35,M,Raw,MOR,B,123.2,125,,165.56,,,165.56,,,1
Yago Williams,36,M,Raw,MOR-AD,B,109.68,110,,185.97,,,185.97,,Yes,1
Brandon Dunbar,32,M,Raw,MOR,B,107.23,110,,176.9,,,176.9,,,1
TJ Hayes,42,M,Multi-ply,MM1-AD,B,104.6,110,,199.58,,,199.58,,Yes,1
Casey Grasso,40,M,Raw,MM1R,B,106.14,110,,199.58,,,199.58,,,1
Gary Knurek,33,M,Raw,MOR-AD,B,88.63,90,,215.46,,,215.46,,Yes,1
Phil Wrengrowski,21,M,Multi-ply,MJ-AD,B,92.35,100,,206.38,,,206.38,,Yes,1
Jerome Cook,40,M,Multi-ply,MM1-AD,B,98.16,100,,226.8,,,226.8,,Yes,1
John Berding,48,M,Multi-ply,MM2,B,103.06,110,,,,,,,,DQ
Dave Murphy,59,M,Multi-ply,MM4,B,108.86,110,,251.74,,,251.74,,,1
Erik Rico Johnsen,28,M,Multi-ply,MO,B,129,140,,294.84,,,294.84,,,1
Joe Mireles,37,M,Multi-ply,MO,B,99.52,100,,310.71,,,310.71,,,1
Eric DeCaires,28,M,Multi-ply,MO-AD,B,97.52,100,,,,,,,Yes,DQ
JoeDon Breda,31,M,Multi-ply,MO-AD,B,109.59,110,,299.37,,,299.37,,Yes,1
Jayson McNett,34,M,Multi-ply,MO,B,153.86,140+,,,,,,,,DQ
Jeff Meland,26,M,Wraps,MOR-AD,SBD,67.04,67.5,151.95,120.2,,156.49,428.64,,Yes,1
Tony Smouthers,31,M,Wraps,MOR-AD,SBD,77.47,82.5,147.42,117.93,,195.04,460.4,,Yes,2
Shawn Tague,24,M,Wraps,MOR-AD,SBD,76.84,82.5,185.97,,,204.12,,,Yes,DQ
Tom Joseph,29,M,Wraps,MOR-AD,SBD,102.51,110,206.38,136.08,,231.33,573.79,,Yes,3
Aaron Sarnovsky,29,M,Wraps,MOR-AD,SBD,80.29,82.5,170.1,122.47,,240.4,532.97,,Yes,1
Jared Bozich,24,M,Wraps,MOR-AD,SBD,89.09,90,197.31,,,242.67,,,Yes,DQ
Austin Korfhage,23,M,Wraps,MJR-AD,SBD,104.6,110,238.14,145.15,,249.48,632.76,,Yes,1
Joseph Walraven,32,M,Wraps,MOR,SBD,98.88,100,249.48,188.24,,265.35,703.07,,,2
Kevin Ball,37,M,Wraps,MOR,SBD,98.7,100,265.35,204.12,,290.3,759.77,,,1
Shane Poole,30,M,Wraps,MOR,SBD,109.32,110,285.76,192.78,,283.5,762.04,,,5
Jake Hartman,26,M,Wraps,MOR,SBD,89.36,90,260.82,181.44,,294.84,737.09,,,1
Justin Sager,27,M,Wraps,MOR,SBD,136.62,140,272.16,174.63,,317.51,764.3,,,2
Collin Sheriff,31,M,Wraps,MOR,SBD,130.27,140,278.96,174.63,,297.1,750.7,,,3
Andrew Burnell,25,M,Wraps,MOR-AD,SBD,108.68,110,306.17,219.99,,324.32,850.49,,Yes,1
Drew Sweany,26,M,Wraps,MOR-AD,SBD,122.74,125,294.84,190.51,,306.17,791.52,,Yes,1
Adam Welter,33,M,Wraps,MSR-AD,SBD,75,75,179.17,113.4,,195.04,487.61,,Yes,1
Brad Snyder,33,M,Wraps,MSR-AD,SBD,88.99,90,147.42,115.67,,199.58,462.66,,Yes,1
Ryan DeCaires,22,M,Wraps,MJR-AD,SBD,88.54,90,219.99,124.74,,192.78,537.51,,Yes,1
Scott Nutter,47,M,Raw,MM2R,BD,192.32,140+,,158.76,,226.8,385.55,,,1
Jacob Soule,36,M,Wraps,MSR,SBD,102.97,110,199.58,163.29,,226.8,589.67,,,2
Matt Graber,31,M,Multi-ply,MO-AD,SBD,89.09,90,292.57,167.83,,254.01,714.41,,Yes,2
Mark Duckworth,42,M,Wraps,MM1R,SBD,99.52,100,226.8,170.1,,258.55,655.44,,,1
Mike Randall,29,M,Multi-ply,MO,SBD,89.9,90,276.69,272.16,,254.01,802.86,,,1
Jay Ashman,40,M,Raw,MM1R,D,121.74,125,,,,272.16,272.16,,,1
Gage Abrahams,38,M,Wraps,MSR-AD,SBD,154.58,140+,226.8,136.08,,278.96,641.83,,Yes,1
Tim Hensley,34,M,Multi-ply,MO-AD,SBD,88.72,90,317.51,306.17,,292.57,916.26,,Yes,1
Nick Tsournouis,33,M,Multi-ply,MO,SBD,108.86,110,392.36,294.84,,283.5,970.69,,,2
Corey Miceli,42,M,Multi-ply,MO,SBD,138.98,140,460.4,272.16,,371.95,1104.5,,,2
Bert Underwood,39,M,Multi-ply,MO,SBD,135.35,140,371.95,272.16,,308.44,952.54,,,4
Martin Arters,36,M,Multi-ply,MO,SBD,89.72,90,317.51,,,,,,,DQ
Derek Wade,24,M,Wraps,MOR,SBD,136.35,140,349.27,206.38,,65.77,621.42,,,4
Jason Reed,36,M,Wraps,MSR-AD,SBD,84.28,90,138.35,108.86,,147.42,394.63,,Yes,2
John Stearns,26,M,Wraps,MOR-AD,SBD,79.83,82.5,120.2,149.69,,172.37,442.25,,Yes,3
Joe Wilson,46,M,Wraps,MM2R-AD,SBD,108.5,110,181.44,129.27,,204.12,514.83,,Yes,1
Dane Wilson,30,M,Wraps,MOR,SBD,187.97,140+,204.12,136.08,,188.24,528.44,,,1
William Cowen,32,M,Wraps,MOR-AD,SBD,108.68,110,190.51,140.61,,201.85,532.97,,Yes,4
Mike Hamilton,36,M,Wraps,MOR-AD,SBD,108.14,110,231.33,170.1,,265.35,666.78,,Yes,2
Joey Kreft,27,M,Wraps,MOR,SBD,88.63,90,199.58,136.08,,244.94,580.6,,,2
Mike Risher,39,M,Wraps,MSR,SBD,109.77,110,260.82,161.03,,238.14,659.98,,,1
Jake Prazak,37,M,Wraps,MOR,SBD,108.86,110,272.16,244.94,,272.16,789.25,,,4
Steve Wagner,32,M,Wraps,MOR,SBD,108.23,110,310.71,206.38,,274.42,791.52,,,3
Weston Riddle,27,M,Wraps,MOR,SBD,106.5,110,317.51,195.04,,308.44,821,,,2
Daniel Dalenberg,25,M,Wraps,MOR,SBD,109.5,110,362.87,222.26,,322.05,907.18,,,1
Paul Carter,39,M,Wraps,MOR,SBD,123.92,125,285.76,199.58,,317.51,802.86,,,3
Dan Maki,34,M,Wraps,MOR,SBD,138.62,140,367.41,215.46,,324.32,907.18,,,1
Kevin Smith #1,36,M,Wraps,MOR,SBD,123.2,125,324.32,217.72,,328.85,870.9,,,1
Andy Grimm,37,M,Wraps,MOR,SBD,115.76,125,317.51,219.99,,312.98,850.49,,,2
Cory Schutter,24,M,Multi-ply,MO-AD,SBD,119.39,125,272.16,213.19,,217.72,703.07,,Yes,2
Chris Olson,37,M,Multi-ply,MO-AD,SBD,154.86,140+,351.53,301.64,,226.8,879.97,,Yes,1
Joey Kouba,28,M,Multi-ply,MO,SBD,138.16,140,272.16,204.12,,249.48,725.75,,,5
Jeff Brown,44,M,Multi-ply,MM1,SBD,124.28,125,374.21,229.06,,290.3,893.58,,,1
Brandon Hill,31,M,Multi-ply,MO,SBD,109.13,110,362.87,,,,,,,DQ
Joe Grosz,33,M,Multi-ply,MO-AD,SBD,123.38,125,362.87,242.67,,272.16,877.7,,Yes,1
Jo Jordan,41,M,Multi-ply,MO,SBD,118.93,125,453.59,208.65,,299.37,961.62,,,2
Pat Helber,29,M,Multi-ply,MO,SBD,113.13,125,424.11,299.37,,319.78,1043.26,,,1
Scott Cartwright,45,M,Multi-ply,MO,SBD,139.98,140,385.55,272.16,,340.19,997.9,,,3
Matt Ladewski,37,M,Multi-ply,MO,SBD,108.5,110,249.48,249.48,,335.6,834.56,,,1
Barzeen Vaziri,29,M,Multi-ply,MO,SBD,148.14,140+,462.66,353.8,,340.19,1156.66,,,1
Marshall Johnson,31,M,Multi-ply,MO,SBD,129.91,140,480.81,331.12,,344.73,1156.66,,,1
Shelly Brandenburg,40,F,Multi-ply,FO-AD,SBD,66.04,67.5,140.61,111.13,,136.08,387.82,,Yes,2
Kristin Vaziri,29,F,Multi-ply,FO-AD,SBD,63.41,67.5,204.12,104.33,,145.15,453.59,,Yes,1
Tracey Patrick,43,F,Multi-ply,FM1,SBD,66.77,67.5,229.06,149.69,,167.83,546.58,,,1
Julia Ladewski,33,F,Multi-ply,FO-AD,SBD,53.98,56,185.97,129.27,,176.9,492.15,,Yes,1
Katey Brent,36,F,Multi-ply,FO,SBD,86.82,90,231.33,115.67,,181.44,528.44,,,2
Candace Puopolo,34,F,Multi-ply,FO,SBD,59.15,60,188.24,124.74,,192.78,505.76,199.58,,1
Mindy Underwood,34,F,Multi-ply,FO,SBD,89.99,90,226.8,115.67,,204.12,546.58,,,1
Jake Whately,23,M,Multi-ply,MJ-AD,SBD,89.09,90,297.1,195.04,,256.28,748.43,,Yes,1
Wes McCormick,24,M,Multi-ply,MO,SBD,74.39,75,317.51,226.8,,308.44,852.75,,,1
Pete Sengos,48,M,Multi-ply,MM2-AD,SBD,99.34,100,353.8,244.94,,283.5,882.24,,Yes,1
Tony Ramos,44,M,Multi-ply,MM1,SBD,86.73,90,349.27,258.55,,272.16,879.97,,,1
John Zemmin,45,M,Multi-ply,MM2,B,114.12,125,,326.59,,,326.59,,,1
Rob Luyando,43,M,Multi-ply,MM1,B,127.46,140,,,,,,,,DQ
Zachary Jaakkola,7,M,Raw,MYR-AD,D,27.67,52,,,,45.36,45.36,,Yes,1
Owen Berneman,10,M,Raw,MYR-AD,D,64.32,67.5,,,,86.18,86.18,,Yes,1
Hunter Luyando,9,M,Raw,MYR-AD,D,49.71,52,,,,88.45,88.45,,Yes,1
Michele Paris,40,F,Wraps,FM1R-AD,SBD,54.25,56,108.86,52.16,,124.74,285.76,,Yes,1
Jenna Sheriff,29,F,Wraps,FOR-AD,SBD,62.41,67.5,102.06,45.36,,124.74,272.16,,Yes,3
Melissa Thompson,34,F,Wraps,FOR-AD,SBD,59.42,60,95.25,65.77,,120.2,281.23,,Yes,1
Kim Boatman,49,F,Wraps,FM2R-AD,SBD,73.03,75,115.67,56.7,,129.27,301.64,,Yes,1
Ellen Tomski,53,F,Wraps,FM3R-AD,SBD,55.61,56,111.13,61.23,,131.54,303.91,,Yes,1
Paula Sheynerman,23,F,Wraps,FJR-AD,SBD,55.52,56,111.13,70.31,,147.42,328.85,,Yes,1
Deb Johnson,42,F,Wraps,FM1R-AD,SBD,74.03,75,97.52,65.77,,161.03,324.32,,Yes,1
Krystal Maki,30,F,Wraps,FOR-AD,SBD,67.4,67.5,136.08,61.23,,163.29,360.61,,Yes,2
Becca-Anderson Abrahams,36,F,Wraps,FOR-AD,SBD,76.84,82.5,161.03,90.72,,161.03,412.77,,Yes,2
Hunter Grasso,15,M,Wraps,MT1R-AD,SBD,66.41,67.5,161.03,90.72,,165.56,417.3,,Yes,1
Nicki Crapotta,28,F,Wraps,FOR-AD,SBD,60.42,67.5,127.01,77.11,,172.37,376.48,,Yes,1
Pam Bosko,41,F,Wraps,FM1R,SBD,67.22,67.5,154.22,86.18,,176.9,417.3,,,1
Mikey Mitchell,15,M,Wraps,MT1R-AD,SBD,71.85,75,154.22,90.72,,181.44,426.38,,Yes,1
Jen Payne,42,F,Wraps,FM1R,SBD,76.66,82.5,199.58,102.06,,197.31,498.95,,,1
Kayla Heal,24,F,Wraps,FOR-AD,SBD,76.02,82.5,172.37,88.45,,199.58,460.4,,Yes,1
Preston Prazak,10,M,Raw,MYR-AD,BD,37.92,52,,24.95,,83.91,108.86,,Yes,1
Candie Yon,42,F,Raw,FM1R-AD,BD,82.28,82.5,,58.97,,113.4,172.37,,Yes,1
Jessica Ball,33,F,Raw,FOR,BD,73.12,75,,56.7,,142.88,199.58,,,1
Pete Knudson,40,M,Raw,MM1R-AD,BD,124.38,125,,249.48,,199.58,449.06,,Yes,1
Kirill Sheynerman,30,M,Raw,MOR-AD,BD,74.75,75,,133.81,,249.48,383.29,,Yes,1
Rob Luyando,43,M,Raw,MM1R,BD,127.46,140,,226.8,,294.84,521.63,,,1
Brian Patrick,33,M,Raw,MOR,BD,98.61,100,,204.12,,308.44,512.56,,,1
Therese Foy,40,F,Raw,FM1R,B,79.92,82.5,,88.45,,,88.45,,,1
Nick Tomski,21,M,Raw,MJR-AD,B,81.74,82.5,,117.93,,,117.93,,Yes,1
Rachel Nutter,43,F,Multi-ply,FM1-AD,B,141.25,90+,,226.8,,,226.8,,Yes,1
Shawn Frankl,36,M,Raw,MOR,B,98.16,100,,235.87,,,235.87,,,1
David Douglas,27,M,Raw,MOR,B,148.87,140+,,249.48,,,249.48,,,3
Adam Dolk,29,M,Multi-ply,MO,B,124.47,125,,258.55,,,258.55,,,1
Brandon Lilly,32,M,Raw,MOR,B,151.68,140+,,272.16,,,272.16,,,2
LeRoy Walker,37,M,Raw,MOR,B,169.64,140+,,294.84,306.18,,294.84,,,1
Damon Dixon,36,M,Multi-ply,MO-AD,B,177.9,140+,,306.17,,,306.17,,Yes,1
Roger Ryan,59,M,Multi-ply,MM4,B,142.52,140+,,331.12,,,331.12,,,1
