Division,WeightClassKg,Place,Name,Team,BodyweightKg,Best3SquatKg,Best3BenchKg,Best3DeadliftKg,TotalKg,Equipment,Event,Sex
Boys,51.71,1,Parker Redman,Alvord,51.62,131.54,68.04,120.2,319.78,Single-ply,SBD,M
Boys,51.71,2,Raiden Brezina,Bowie,46.81,106.59,45.36,97.52,249.48,Single-ply,SBD,M
Boys,51.71,3,Trenton Cottrell,Paradise,47.81,90.72,54.43,92.99,238.14,Single-ply,SBD,M
Boys,51.71,4,Jesse Butler,Alvord,51.21,79.38,61.23,90.72,231.33,Single-ply,SBD,M
Boys,51.71,5,Hunter Bowen,Boyd,45.77,90.72,45.36,90.72,226.8,Single-ply,SBD,M
Boys,55.79,1,Justin Christensen,Alvord,55.75,181.44,90.72,167.83,439.98,Single-ply,SBD,M
Boys,55.79,2,Colton Covington,Bowie,55.79,127.01,81.65,142.88,351.53,Single-ply,SBD,M
Boys,55.79,3,Nathan Curry,Bowie,55.75,108.86,65.77,111.13,285.76,Single-ply,SBD,M
Boys,55.79,4,Jacob Crawford,Bowie,55.75,106.59,56.7,122.47,285.76,Single-ply,SBD,M
Boys,59.87,1,Payton Miller,Alvord,59.15,213.19,111.13,192.78,517.1,Single-ply,SBD,M
Boys,59.87,2,Roman Rivas,Bowie,58.79,151.95,88.45,161.03,401.43,Single-ply,SBD,M
Boys,59.87,3,Ethan Meyers,Bowie,59.6,151.95,81.65,163.29,396.89,Single-ply,SBD,M
Boys,59.87,4,Josh Christian,Boyd,59.56,151.95,68.04,142.88,362.87,Single-ply,SBD,M
Boys,59.87,DQ,Jarrett Morris,Paradise,56.25,161.03,83.91,,,Single-ply,SBD,M
Boys,67.13,1,Dalton Davis,Bowie,65.77,176.9,113.4,190.51,480.81,Single-ply,SBD,M
Boys,67.13,2,Jakob Dumke,Alvord,65.5,161.03,111.13,174.63,446.79,Single-ply,SBD,M
Boys,67.13,3,Julian Perez,Paradise,67.09,165.56,81.65,170.1,417.3,Single-ply,SBD,M
Boys,67.13,4,Ottis Carter,Ponder,67.09,165.56,88.45,149.69,403.7,Single-ply,SBD,M
Boys,67.13,5,Colby Delao,Bowie,63.87,156.49,86.18,158.76,401.43,Single-ply,SBD,M
Boys,82.1,1,Jacob Skinner,Bowie,82.01,226.8,142.88,213.19,582.87,Single-ply,SBD,M
Boys,82.1,2,Dillon Inman,Boyd,80.01,215.46,161.03,204.12,580.6,Single-ply,SBD,M
Boys,82.1,3,Jacob Robinson,Paradise,80.83,208.65,115.67,222.26,546.58,Single-ply,SBD,M
Boys,89.81,1,Jacob Ramos,Paradise,88.5,181.44,117.93,204.12,503.49,Single-ply,SBD,M
Boys,89.81,2,Dawson White,Boyd,89.36,181.44,120.2,201.85,503.49,Single-ply,SBD,M
Boys,89.81,3,Cameron Carroll,Ponder,83.19,181.44,115.67,195.04,492.15,Single-ply,SBD,M
Boys,89.81,4,Hunter Nash,Boyd,82.69,167.83,97.52,154.22,419.57,Single-ply,SBD,M
Boys,99.79,1,Zackary Otto,Bowie,98.34,249.48,149.69,192.78,591.94,Single-ply,SBD,M
Boys,99.79,DQ,Kaleb Evans,Paradise,92.71,,,,,Single-ply,SBD,M
Boys,109.77,1,Bryan Arellano,Bowie,107.55,254.01,161.03,188.24,603.28,Single-ply,SBD,M
Boys,109.77,2,Jason Daughtry,Nocona,109.77,217.72,120.2,215.46,553.38,Single-ply,SBD,M
Boys,109.77,3,Dain Warnick,Alvord,101.6,213.19,117.93,195.04,526.17,Single-ply,SBD,M
Boys,124.74,1,Bartolo Guevara,Boyd,118.71,317.51,158.76,226.8,703.07,Single-ply,SBD,M
Boys,124.74,2,Deuce Glasker,Nocona,124.6,249.48,158.76,195.04,603.28,Single-ply,SBD,M
Boys,124.74,3,Clayton Godwin,Paradise,121.2,238.14,138.35,208.65,585.13,Single-ply,SBD,M
Boys,124.74,4,Kaleb Crable,Alvord,112.72,204.12,99.79,183.7,487.61,Single-ply,SBD,M
Boys,124.74,5,William Estel,Boyd,115.53,170.1,95.25,158.76,424.11,Single-ply,SBD,M
Boys,124.74+,1,Zach Brown,Alvord,140.8,317.51,161.03,254.01,732.55,Single-ply,SBD,M
Boys,124.74+,2,Tyler Yeck,Ponder,166.6,272.16,158.76,249.48,680.39,Single-ply,SBD,M
Boys,124.74+,3,Brady York,Nocona,133.49,258.55,149.69,233.6,641.83,Single-ply,SBD,M
Boys,124.74+,4,Tyson Herron,Bowie,151.45,204.12,136.08,192.78,532.97,Single-ply,SBD,M
Boys,,NS,Jeffery Brown,Chico,,,,,,Single-ply,SBD,M
Boys,,NS,Zane Scott,Chico,,,,,,Single-ply,SBD,M
Boys,,NS,Ty South,Chico,,,,,,Single-ply,SBD,M
Boys,,NS,Niko Starnes,Chico,,,,,,Single-ply,SBD,M
Boys,,NS,Lane Stevens,Paradise,,,,,,Single-ply,SBD,M
Boys,,NS,McCain Cantrell,Boyd,,,,,,Single-ply,SBD,M
Boys,,NS,Colton Adler,Ponder,,,,,,Single-ply,SBD,M
